{
  "apiGatewayTemplateUrlEncoded": {
    "path": "$context.resourcePath",
    "body" : "$input.json('$')",
    "headers" : "{#foreach($header in $input.params().header.keySet())  \"$header\": \"$util.escapeJavaScript($input.params().header.get($header))\" #if($foreach.hasNext),#end#end}",
    "query": "{#foreach($queryParam in $input.params().querystring.keySet())\"$queryParam\": \"$util.escapeJavaScript($input.params().querystring.get($queryParam))\" #if($foreach.hasNext),#end#end}"
  }
}
